%YAML 1.1
%TAG !u! tag:unity3d.com,2011:
--- !u!78 &1
TagManager:
  serializedVersion: 2
  tags:
  - Bunny
  - DamageDealer
  - Death
  - Goal
  - PowerUp
  - Biteable
  layers:
  - Default
  - TransparentFX
  - Ignore Raycast
  - 
  - Water
  - UI
  - 
  - 
  - GroundLayer
  - 
  - 
  - 
  - 
  - 
  - 
  - 
  - 
  - 
  - 
  - 
  - 
  - 
  - 
  - 
  - 
  - 
  - 
  - 
  - 
  - 
  - 
  - 
  m_SortingLayers:
  - name: Default
    uniqueID: 0
    locked: 0
  - name: BG
    uniqueID: 45032949
    locked: 0
  - name: Back
    uniqueID: 2981802925
    locked: 0
  - name: Mid
    uniqueID: 1708897091
    locked: 0
  - name: MidFront
    uniqueID: 1123170317
    locked: 0
  - name: Front
    uniqueID: 3859465993
    locked: 0
